<svg width="60" height="60" viewBox="0 0 60 60" fill="none" xmlns="http://www.w3.org/2000/svg">
<g id="ico_google">
<rect id="Rectangle" width="50.7692" height="60" transform="translate(4.61548)" fill="#D23F2F"/>
<rect id="Rectangle_2" width="50.7692" height="60" transform="translate(60 4.61523) rotate(90)" fill="#D23F2F"/>
<g id="Group">
<rect id="Rectangle_3" width="22.6415" height="4.5283" transform="translate(14.717 4.52832)" fill="white"/>
<rect id="Rectangle_4" width="13.5849" height="4.5283" transform="translate(14.717 22.6415)" fill="white"/>
<rect id="Rectangle_5" width="18.1132" height="4.5283" transform="translate(10.1887 31.6981)" fill="white"/>
<rect id="Rectangle_6" width="18.1132" height="4.5283" transform="translate(10.1887 49.8113)" fill="white"/>
<rect id="Rectangle_7" width="18.1132" height="4.5283" transform="translate(28.302 49.8113) rotate(-90)" fill="white"/>
<rect id="Rectangle_8" width="13.5849" height="4.5283" transform="translate(5.6604 49.8113) rotate(-90)" fill="white"/>
<rect id="Rectangle_9" width="13.5849" height="4.5283" transform="translate(10.1887 22.6415) rotate(-90)" fill="white"/>
<rect id="Rectangle_10" width="13.5849" height="4.5283" transform="translate(28.302 22.6415) rotate(-90)" fill="white"/>
<rect id="Rectangle_11" width="4.5283" height="4.5283" transform="translate(23.7737 31.6981) rotate(-90)" fill="white"/>
<rect id="Rectangle_12" width="13.5849" height="4.5283" transform="translate(46.415 27.1698) rotate(-90)" fill="white"/>
<rect id="Rectangle_13" width="13.5849" height="4.5283" transform="translate(41.8867 18.1132)" fill="white"/>
</g>
</g>
</svg>
