<svg width="40" height="40" viewBox="0 0 40 40" fill="none" xmlns="http://www.w3.org/2000/svg">
<g id="ico_pixel_close">
<rect id="Rectangle" width="22.8571" height="4.76188" transform="translate(8.57129)" fill="white"/>
<rect id="Rectangle_2" width="22.8571" height="4.76188" transform="translate(8.57129 35.238)" fill="white"/>
<rect id="Rectangle_3" width="22.857" height="4.7619" transform="translate(0 31.4285) rotate(-90)" fill="white"/>
<rect id="Rectangle_4" width="22.857" height="4.7619" transform="translate(35.238 31.4285) rotate(-90)" fill="white"/>
<rect id="Rectangle_5" width="4.76188" height="4.7619" transform="translate(30.4761 9.52441) rotate(-90)" fill="white"/>
<rect id="Rectangle_6" width="4.76188" height="4.7619" transform="translate(4.76172 9.52441) rotate(-90)" fill="white"/>
<rect id="Rectangle_7" width="3.99999" height="19.9999" transform="translate(25.6567 12.1814) rotate(45)" fill="white"/>
<rect id="Rectangle_8" width="3.99999" height="19.9999" transform="translate(28.4851 26.3235) rotate(135)" fill="white"/>
<rect id="Rectangle_9" width="4.76188" height="4.7619" transform="translate(30.4761 35.238) rotate(-90)" fill="white"/>
<rect id="Rectangle_10" width="4.76188" height="4.7619" transform="translate(4.76172 35.238) rotate(-90)" fill="white"/>
</g>
</svg>
