<svg width="718" height="77" viewBox="0 0 718 77" fill="none" xmlns="http://www.w3.org/2000/svg">
<g filter="url(#filter0_d)">
<rect width="500" height="3" transform="translate(174 66)" fill="#E42037"/>
</g>
<g filter="url(#filter1_d)">
<rect width="3" height="3" transform="translate(677 66)" fill="#E42037"/>
</g>
<g filter="url(#filter2_d)">
<rect width="3" height="3" transform="translate(687 66)" fill="#E42037"/>
</g>
<g filter="url(#filter3_d)">
<rect width="3" height="3" transform="translate(707 66)" fill="#E42037"/>
</g>
<g filter="url(#filter4_d)">
<mask id="path-5-outside-1" maskUnits="userSpaceOnUse" x="-4" y="-4" width="260" height="63" fill="black">
<rect fill="white" x="-4" y="-4" width="260" height="63"/>
<path d="M20.6646 24.7598C20.5279 27.3575 20.0982 29.4864 19.3755 31.1465C18.6724 32.7871 17.5982 34.2227 16.1529 35.4532L13.5748 37.5625C10.8795 39.8868 9.63922 42.25 9.85406 44.6524C9.99078 46.1953 10.8013 46.9961 12.2857 47.0547C14.8248 47.1133 16.4068 45.4922 17.0318 42.1914L26.6998 42.1328C26.4068 46.0196 24.9224 49.0762 22.2466 51.3028C19.5904 53.5489 16.1529 54.6328 11.9341 54.5547C8.14508 54.5157 5.14703 53.4805 2.94 51.4493C0.7525 49.4375 -0.214297 46.6934 0.0396094 43.2168C0.215391 39.9746 2.10992 36.8789 5.7232 33.9297L9.4732 30.9414C11.2115 29.4375 12.2857 27.3965 12.6959 24.8184L20.6646 24.7598ZM24.1509 15.7364C24.19 17.1621 23.692 18.3828 22.6568 19.3985C21.6216 20.3946 20.3326 20.8926 18.7896 20.8926C17.3248 20.8926 16.0845 20.4434 15.0689 19.545C14.0533 18.627 13.5259 17.4746 13.4869 16.0879C13.4478 14.6231 13.9556 13.4024 15.0103 12.4258C16.0845 11.4297 17.3638 10.9317 18.8482 10.9317C20.313 10.9317 21.5533 11.3907 22.5689 12.3086C23.5845 13.2071 24.1119 14.3496 24.1509 15.7364Z"/>
<path d="M30.772 43.2754L38.1548 0.619173L50.6939 0.64847C54.3853 0.64847 57.608 1.62503 60.3619 3.57816C63.1158 5.51175 65.0689 8.15824 66.2213 11.5176C67.2173 14.4668 67.5201 17.6504 67.1295 21.0684L66.9244 22.8555C66.397 26.6836 65.1275 30.1504 63.1158 33.2559C61.1041 36.3614 58.5162 38.8028 55.3521 40.5801C52.188 42.3379 48.7701 43.2364 45.0982 43.2754H30.772ZM46.8267 8.55863L42.1685 35.3653L45.0982 35.3946C48.5357 35.3946 51.2896 34.0664 53.3599 31.4102C55.4498 28.7539 56.69 24.6914 57.0806 19.2227L57.1392 18.2559C57.2759 15.1309 56.7877 12.7578 55.6744 11.1368C54.5611 9.51566 52.8912 8.66605 50.6646 8.58792L46.8267 8.55863Z"/>
<path d="M108.702 0.619173L103.956 28.4512C103.272 33.2754 101.28 37.0743 97.9791 39.8477C94.6978 42.6211 90.5572 43.9688 85.5572 43.8907C82.4517 43.8321 79.7564 43.168 77.4713 41.8985C75.1861 40.6094 73.4966 38.8028 72.4029 36.4785C71.3287 34.1348 70.9673 31.4688 71.3189 28.4805L76.065 0.619173H86.1431L81.4263 28.5098C81.3091 29.4864 81.2896 30.4141 81.3677 31.293C81.4654 32.7383 81.9146 33.8614 82.7154 34.6621C83.5357 35.4629 84.688 35.8926 86.1724 35.9512C90.4693 36.0879 93.0572 33.5977 93.9361 28.4805L98.6822 0.619173H108.702Z"/>
<path d="M107.647 43.2754L115.03 0.619173L127.569 0.64847C131.26 0.64847 134.483 1.62503 137.237 3.57816C139.991 5.51175 141.944 8.15824 143.096 11.5176C144.092 14.4668 144.395 17.6504 144.004 21.0684L143.799 22.8555C143.272 26.6836 142.003 30.1504 139.991 33.2559C137.979 36.3614 135.391 38.8028 132.227 40.5801C129.063 42.3379 125.645 43.2364 121.973 43.2754H107.647ZM123.702 8.55863L119.044 35.3653L121.973 35.3946C125.411 35.3946 128.165 34.0664 130.235 31.4102C132.325 28.7539 133.565 24.6914 133.956 19.2227L134.014 18.2559C134.151 15.1309 133.663 12.7578 132.549 11.1368C131.436 9.51566 129.766 8.66605 127.54 8.58792L123.702 8.55863Z"/>
<path d="M169.961 35.3067H156.338L152.559 43.2754H141.514L164.102 0.619173H173.536L181.417 43.2754H170.987L169.961 35.3067ZM160.088 27.3672H168.936L167.061 12.6602L160.088 27.3672Z"/>
<path d="M208.311 31.7325C208.741 29.5254 207.549 27.8164 204.737 26.6055L199.932 24.6133C193.194 21.586 189.991 17.4649 190.323 12.25C190.46 9.86722 191.28 7.74808 192.784 5.89261C194.288 4.01761 196.368 2.56253 199.024 1.52738C201.68 0.49222 204.581 -0.00582655 207.725 0.033236C211.944 0.111361 215.333 1.34183 217.891 3.72464C220.469 6.10745 221.739 9.30081 221.7 13.3047H211.739C211.797 11.6641 211.446 10.3555 210.684 9.37894C209.942 8.38284 208.711 7.86527 206.993 7.8262C205.313 7.78714 203.829 8.17777 202.54 8.99808C201.251 9.81839 200.489 10.9219 200.254 12.3086C199.883 14.2618 201.329 15.8633 204.59 17.1133C207.872 18.3633 210.254 19.4375 211.739 20.336C216.407 23.1289 218.594 26.8985 218.301 31.6446C218.145 34.1055 217.354 36.2637 215.928 38.1192C214.503 39.9746 212.52 41.4102 209.981 42.4258C207.461 43.4414 204.629 43.9297 201.485 43.8907C199.18 43.8516 197.042 43.4903 195.069 42.8067C193.096 42.1231 191.407 41.127 190.001 39.8184C187.149 37.1817 185.782 33.7149 185.899 29.418L195.948 29.4473C195.831 31.6348 196.251 33.295 197.208 34.4278C198.165 35.541 199.776 36.0977 202.042 36.0977C203.721 36.0977 205.118 35.7168 206.231 34.9551C207.364 34.1739 208.057 33.0996 208.311 31.7325Z"/>
<path d="M230.958 29.8282C231.192 25.1797 232.686 21.6446 235.44 19.2227L237.872 17.2891C239.2 16.2149 240.196 15.1309 240.86 14.0371C241.544 12.9434 241.856 11.6641 241.797 10.1993C241.739 8.4805 240.831 7.59183 239.073 7.53324C237.94 7.49417 236.983 7.90433 236.202 8.7637C235.44 9.62308 234.903 10.834 234.59 12.3965L224.952 12.4551C225.245 8.54886 226.739 5.48245 229.434 3.25589C232.129 1.0098 235.557 -0.0741859 239.717 0.00393908C242.237 0.0625328 244.434 0.56058 246.309 1.49808C248.204 2.43558 249.61 3.75394 250.528 5.45316C251.446 7.15238 251.827 9.1348 251.67 11.4004C251.436 14.7012 249.581 17.7676 246.104 20.5996L242.676 23.3243C240.665 25.0235 239.444 27.1719 239.014 29.7696L230.958 29.8282ZM227.911 38.8809C227.872 37.377 228.379 36.1368 229.434 35.1602C230.489 34.1836 231.758 33.6953 233.243 33.6953C234.747 33.6953 235.997 34.1543 236.993 35.0723C237.989 35.9903 238.506 37.1328 238.545 38.5C238.585 40.0039 238.077 41.2442 237.022 42.2207C235.987 43.1778 234.717 43.6563 233.213 43.6563C231.768 43.6563 230.528 43.2266 229.493 42.3672C228.477 41.4883 227.95 40.3262 227.911 38.8809Z"/>
</mask>
<path d="M20.6646 24.7598C20.5279 27.3575 20.0982 29.4864 19.3755 31.1465C18.6724 32.7871 17.5982 34.2227 16.1529 35.4532L13.5748 37.5625C10.8795 39.8868 9.63922 42.25 9.85406 44.6524C9.99078 46.1953 10.8013 46.9961 12.2857 47.0547C14.8248 47.1133 16.4068 45.4922 17.0318 42.1914L26.6998 42.1328C26.4068 46.0196 24.9224 49.0762 22.2466 51.3028C19.5904 53.5489 16.1529 54.6328 11.9341 54.5547C8.14508 54.5157 5.14703 53.4805 2.94 51.4493C0.7525 49.4375 -0.214297 46.6934 0.0396094 43.2168C0.215391 39.9746 2.10992 36.8789 5.7232 33.9297L9.4732 30.9414C11.2115 29.4375 12.2857 27.3965 12.6959 24.8184L20.6646 24.7598ZM24.1509 15.7364C24.19 17.1621 23.692 18.3828 22.6568 19.3985C21.6216 20.3946 20.3326 20.8926 18.7896 20.8926C17.3248 20.8926 16.0845 20.4434 15.0689 19.545C14.0533 18.627 13.5259 17.4746 13.4869 16.0879C13.4478 14.6231 13.9556 13.4024 15.0103 12.4258C16.0845 11.4297 17.3638 10.9317 18.8482 10.9317C20.313 10.9317 21.5533 11.3907 22.5689 12.3086C23.5845 13.2071 24.1119 14.3496 24.1509 15.7364Z" transform="translate(4.22809 4.72461)" fill="#FDFDFB"/>
<path d="M30.772 43.2754L38.1548 0.619173L50.6939 0.64847C54.3853 0.64847 57.608 1.62503 60.3619 3.57816C63.1158 5.51175 65.0689 8.15824 66.2213 11.5176C67.2173 14.4668 67.5201 17.6504 67.1295 21.0684L66.9244 22.8555C66.397 26.6836 65.1275 30.1504 63.1158 33.2559C61.1041 36.3614 58.5162 38.8028 55.3521 40.5801C52.188 42.3379 48.7701 43.2364 45.0982 43.2754H30.772ZM46.8267 8.55863L42.1685 35.3653L45.0982 35.3946C48.5357 35.3946 51.2896 34.0664 53.3599 31.4102C55.4498 28.7539 56.69 24.6914 57.0806 19.2227L57.1392 18.2559C57.2759 15.1309 56.7877 12.7578 55.6744 11.1368C54.5611 9.51566 52.8912 8.66605 50.6646 8.58792L46.8267 8.55863Z" transform="translate(4.22809 4.72461)" fill="#FDFDFB"/>
<path d="M108.702 0.619173L103.956 28.4512C103.272 33.2754 101.28 37.0743 97.9791 39.8477C94.6978 42.6211 90.5572 43.9688 85.5572 43.8907C82.4517 43.8321 79.7564 43.168 77.4713 41.8985C75.1861 40.6094 73.4966 38.8028 72.4029 36.4785C71.3287 34.1348 70.9673 31.4688 71.3189 28.4805L76.065 0.619173H86.1431L81.4263 28.5098C81.3091 29.4864 81.2896 30.4141 81.3677 31.293C81.4654 32.7383 81.9146 33.8614 82.7154 34.6621C83.5357 35.4629 84.688 35.8926 86.1724 35.9512C90.4693 36.0879 93.0572 33.5977 93.9361 28.4805L98.6822 0.619173H108.702Z" transform="translate(4.22809 4.72461)" fill="#FDFDFB"/>
<path d="M107.647 43.2754L115.03 0.619173L127.569 0.64847C131.26 0.64847 134.483 1.62503 137.237 3.57816C139.991 5.51175 141.944 8.15824 143.096 11.5176C144.092 14.4668 144.395 17.6504 144.004 21.0684L143.799 22.8555C143.272 26.6836 142.003 30.1504 139.991 33.2559C137.979 36.3614 135.391 38.8028 132.227 40.5801C129.063 42.3379 125.645 43.2364 121.973 43.2754H107.647ZM123.702 8.55863L119.044 35.3653L121.973 35.3946C125.411 35.3946 128.165 34.0664 130.235 31.4102C132.325 28.7539 133.565 24.6914 133.956 19.2227L134.014 18.2559C134.151 15.1309 133.663 12.7578 132.549 11.1368C131.436 9.51566 129.766 8.66605 127.54 8.58792L123.702 8.55863Z" transform="translate(4.22809 4.72461)" fill="#FDFDFB"/>
<path d="M169.961 35.3067H156.338L152.559 43.2754H141.514L164.102 0.619173H173.536L181.417 43.2754H170.987L169.961 35.3067ZM160.088 27.3672H168.936L167.061 12.6602L160.088 27.3672Z" transform="translate(4.22809 4.72461)" fill="#FDFDFB"/>
<path d="M208.311 31.7325C208.741 29.5254 207.549 27.8164 204.737 26.6055L199.932 24.6133C193.194 21.586 189.991 17.4649 190.323 12.25C190.46 9.86722 191.28 7.74808 192.784 5.89261C194.288 4.01761 196.368 2.56253 199.024 1.52738C201.68 0.49222 204.581 -0.00582655 207.725 0.033236C211.944 0.111361 215.333 1.34183 217.891 3.72464C220.469 6.10745 221.739 9.30081 221.7 13.3047H211.739C211.797 11.6641 211.446 10.3555 210.684 9.37894C209.942 8.38284 208.711 7.86527 206.993 7.8262C205.313 7.78714 203.829 8.17777 202.54 8.99808C201.251 9.81839 200.489 10.9219 200.254 12.3086C199.883 14.2618 201.329 15.8633 204.59 17.1133C207.872 18.3633 210.254 19.4375 211.739 20.336C216.407 23.1289 218.594 26.8985 218.301 31.6446C218.145 34.1055 217.354 36.2637 215.928 38.1192C214.503 39.9746 212.52 41.4102 209.981 42.4258C207.461 43.4414 204.629 43.9297 201.485 43.8907C199.18 43.8516 197.042 43.4903 195.069 42.8067C193.096 42.1231 191.407 41.127 190.001 39.8184C187.149 37.1817 185.782 33.7149 185.899 29.418L195.948 29.4473C195.831 31.6348 196.251 33.295 197.208 34.4278C198.165 35.541 199.776 36.0977 202.042 36.0977C203.721 36.0977 205.118 35.7168 206.231 34.9551C207.364 34.1739 208.057 33.0996 208.311 31.7325Z" transform="translate(4.22809 4.72461)" fill="#FDFDFB"/>
<path d="M230.958 29.8282C231.192 25.1797 232.686 21.6446 235.44 19.2227L237.872 17.2891C239.2 16.2149 240.196 15.1309 240.86 14.0371C241.544 12.9434 241.856 11.6641 241.797 10.1993C241.739 8.4805 240.831 7.59183 239.073 7.53324C237.94 7.49417 236.983 7.90433 236.202 8.7637C235.44 9.62308 234.903 10.834 234.59 12.3965L224.952 12.4551C225.245 8.54886 226.739 5.48245 229.434 3.25589C232.129 1.0098 235.557 -0.0741859 239.717 0.00393908C242.237 0.0625328 244.434 0.56058 246.309 1.49808C248.204 2.43558 249.61 3.75394 250.528 5.45316C251.446 7.15238 251.827 9.1348 251.67 11.4004C251.436 14.7012 249.581 17.7676 246.104 20.5996L242.676 23.3243C240.665 25.0235 239.444 27.1719 239.014 29.7696L230.958 29.8282ZM227.911 38.8809C227.872 37.377 228.379 36.1368 229.434 35.1602C230.489 34.1836 231.758 33.6953 233.243 33.6953C234.747 33.6953 235.997 34.1543 236.993 35.0723C237.989 35.9903 238.506 37.1328 238.545 38.5C238.585 40.0039 238.077 41.2442 237.022 42.2207C235.987 43.1778 234.717 43.6563 233.213 43.6563C231.768 43.6563 230.528 43.2266 229.493 42.3672C228.477 41.4883 227.95 40.3262 227.911 38.8809Z" transform="translate(4.22809 4.72461)" fill="#FDFDFB"/>
<path d="M20.6646 24.7598C20.5279 27.3575 20.0982 29.4864 19.3755 31.1465C18.6724 32.7871 17.5982 34.2227 16.1529 35.4532L13.5748 37.5625C10.8795 39.8868 9.63922 42.25 9.85406 44.6524C9.99078 46.1953 10.8013 46.9961 12.2857 47.0547C14.8248 47.1133 16.4068 45.4922 17.0318 42.1914L26.6998 42.1328C26.4068 46.0196 24.9224 49.0762 22.2466 51.3028C19.5904 53.5489 16.1529 54.6328 11.9341 54.5547C8.14508 54.5157 5.14703 53.4805 2.94 51.4493C0.7525 49.4375 -0.214297 46.6934 0.0396094 43.2168C0.215391 39.9746 2.10992 36.8789 5.7232 33.9297L9.4732 30.9414C11.2115 29.4375 12.2857 27.3965 12.6959 24.8184L20.6646 24.7598ZM24.1509 15.7364C24.19 17.1621 23.692 18.3828 22.6568 19.3985C21.6216 20.3946 20.3326 20.8926 18.7896 20.8926C17.3248 20.8926 16.0845 20.4434 15.0689 19.545C14.0533 18.627 13.5259 17.4746 13.4869 16.0879C13.4478 14.6231 13.9556 13.4024 15.0103 12.4258C16.0845 11.4297 17.3638 10.9317 18.8482 10.9317C20.313 10.9317 21.5533 11.3907 22.5689 12.3086C23.5845 13.2071 24.1119 14.3496 24.1509 15.7364Z" transform="translate(4.22809 4.72461)" stroke="#0D1726" stroke-width="8" stroke-linejoin="round" mask="url(#path-5-outside-1)"/>
<path d="M30.772 43.2754L38.1548 0.619173L50.6939 0.64847C54.3853 0.64847 57.608 1.62503 60.3619 3.57816C63.1158 5.51175 65.0689 8.15824 66.2213 11.5176C67.2173 14.4668 67.5201 17.6504 67.1295 21.0684L66.9244 22.8555C66.397 26.6836 65.1275 30.1504 63.1158 33.2559C61.1041 36.3614 58.5162 38.8028 55.3521 40.5801C52.188 42.3379 48.7701 43.2364 45.0982 43.2754H30.772ZM46.8267 8.55863L42.1685 35.3653L45.0982 35.3946C48.5357 35.3946 51.2896 34.0664 53.3599 31.4102C55.4498 28.7539 56.69 24.6914 57.0806 19.2227L57.1392 18.2559C57.2759 15.1309 56.7877 12.7578 55.6744 11.1368C54.5611 9.51566 52.8912 8.66605 50.6646 8.58792L46.8267 8.55863Z" transform="translate(4.22809 4.72461)" stroke="#0D1726" stroke-width="8" stroke-linejoin="round" mask="url(#path-5-outside-1)"/>
<path d="M108.702 0.619173L103.956 28.4512C103.272 33.2754 101.28 37.0743 97.9791 39.8477C94.6978 42.6211 90.5572 43.9688 85.5572 43.8907C82.4517 43.8321 79.7564 43.168 77.4713 41.8985C75.1861 40.6094 73.4966 38.8028 72.4029 36.4785C71.3287 34.1348 70.9673 31.4688 71.3189 28.4805L76.065 0.619173H86.1431L81.4263 28.5098C81.3091 29.4864 81.2896 30.4141 81.3677 31.293C81.4654 32.7383 81.9146 33.8614 82.7154 34.6621C83.5357 35.4629 84.688 35.8926 86.1724 35.9512C90.4693 36.0879 93.0572 33.5977 93.9361 28.4805L98.6822 0.619173H108.702Z" transform="translate(4.22809 4.72461)" stroke="#0D1726" stroke-width="8" stroke-linejoin="round" mask="url(#path-5-outside-1)"/>
<path d="M107.647 43.2754L115.03 0.619173L127.569 0.64847C131.26 0.64847 134.483 1.62503 137.237 3.57816C139.991 5.51175 141.944 8.15824 143.096 11.5176C144.092 14.4668 144.395 17.6504 144.004 21.0684L143.799 22.8555C143.272 26.6836 142.003 30.1504 139.991 33.2559C137.979 36.3614 135.391 38.8028 132.227 40.5801C129.063 42.3379 125.645 43.2364 121.973 43.2754H107.647ZM123.702 8.55863L119.044 35.3653L121.973 35.3946C125.411 35.3946 128.165 34.0664 130.235 31.4102C132.325 28.7539 133.565 24.6914 133.956 19.2227L134.014 18.2559C134.151 15.1309 133.663 12.7578 132.549 11.1368C131.436 9.51566 129.766 8.66605 127.54 8.58792L123.702 8.55863Z" transform="translate(4.22809 4.72461)" stroke="#0D1726" stroke-width="8" stroke-linejoin="round" mask="url(#path-5-outside-1)"/>
<path d="M169.961 35.3067H156.338L152.559 43.2754H141.514L164.102 0.619173H173.536L181.417 43.2754H170.987L169.961 35.3067ZM160.088 27.3672H168.936L167.061 12.6602L160.088 27.3672Z" transform="translate(4.22809 4.72461)" stroke="#0D1726" stroke-width="8" stroke-linejoin="round" mask="url(#path-5-outside-1)"/>
<path d="M208.311 31.7325C208.741 29.5254 207.549 27.8164 204.737 26.6055L199.932 24.6133C193.194 21.586 189.991 17.4649 190.323 12.25C190.46 9.86722 191.28 7.74808 192.784 5.89261C194.288 4.01761 196.368 2.56253 199.024 1.52738C201.68 0.49222 204.581 -0.00582655 207.725 0.033236C211.944 0.111361 215.333 1.34183 217.891 3.72464C220.469 6.10745 221.739 9.30081 221.7 13.3047H211.739C211.797 11.6641 211.446 10.3555 210.684 9.37894C209.942 8.38284 208.711 7.86527 206.993 7.8262C205.313 7.78714 203.829 8.17777 202.54 8.99808C201.251 9.81839 200.489 10.9219 200.254 12.3086C199.883 14.2618 201.329 15.8633 204.59 17.1133C207.872 18.3633 210.254 19.4375 211.739 20.336C216.407 23.1289 218.594 26.8985 218.301 31.6446C218.145 34.1055 217.354 36.2637 215.928 38.1192C214.503 39.9746 212.52 41.4102 209.981 42.4258C207.461 43.4414 204.629 43.9297 201.485 43.8907C199.18 43.8516 197.042 43.4903 195.069 42.8067C193.096 42.1231 191.407 41.127 190.001 39.8184C187.149 37.1817 185.782 33.7149 185.899 29.418L195.948 29.4473C195.831 31.6348 196.251 33.295 197.208 34.4278C198.165 35.541 199.776 36.0977 202.042 36.0977C203.721 36.0977 205.118 35.7168 206.231 34.9551C207.364 34.1739 208.057 33.0996 208.311 31.7325Z" transform="translate(4.22809 4.72461)" stroke="#0D1726" stroke-width="8" stroke-linejoin="round" mask="url(#path-5-outside-1)"/>
<path d="M230.958 29.8282C231.192 25.1797 232.686 21.6446 235.44 19.2227L237.872 17.2891C239.2 16.2149 240.196 15.1309 240.86 14.0371C241.544 12.9434 241.856 11.6641 241.797 10.1993C241.739 8.4805 240.831 7.59183 239.073 7.53324C237.94 7.49417 236.983 7.90433 236.202 8.7637C235.44 9.62308 234.903 10.834 234.59 12.3965L224.952 12.4551C225.245 8.54886 226.739 5.48245 229.434 3.25589C232.129 1.0098 235.557 -0.0741859 239.717 0.00393908C242.237 0.0625328 244.434 0.56058 246.309 1.49808C248.204 2.43558 249.61 3.75394 250.528 5.45316C251.446 7.15238 251.827 9.1348 251.67 11.4004C251.436 14.7012 249.581 17.7676 246.104 20.5996L242.676 23.3243C240.665 25.0235 239.444 27.1719 239.014 29.7696L230.958 29.8282ZM227.911 38.8809C227.872 37.377 228.379 36.1368 229.434 35.1602C230.489 34.1836 231.758 33.6953 233.243 33.6953C234.747 33.6953 235.997 34.1543 236.993 35.0723C237.989 35.9903 238.506 37.1328 238.545 38.5C238.585 40.0039 238.077 41.2442 237.022 42.2207C235.987 43.1778 234.717 43.6563 233.213 43.6563C231.768 43.6563 230.528 43.2266 229.493 42.3672C228.477 41.4883 227.95 40.3262 227.911 38.8809Z" transform="translate(4.22809 4.72461)" stroke="#0D1726" stroke-width="8" stroke-linejoin="round" mask="url(#path-5-outside-1)"/>
</g>
<defs>
<filter id="filter0_d" x="166" y="58" width="516" height="19" filterUnits="userSpaceOnUse" color-interpolation-filters="sRGB">
<feFlood flood-opacity="0" result="BackgroundImageFix"/>
<feColorMatrix in="SourceAlpha" type="matrix" values="0 0 0 0 0 0 0 0 0 0 0 0 0 0 0 0 0 0 255 0"/>
<feOffset/>
<feGaussianBlur stdDeviation="4"/>
<feColorMatrix type="matrix" values="0 0 0 0 0.894118 0 0 0 0 0.12549 0 0 0 0 0.215686 0 0 0 1 0"/>
<feBlend mode="normal" in2="BackgroundImageFix" result="effect1_dropShadow"/>
<feBlend mode="normal" in="SourceGraphic" in2="effect1_dropShadow" result="shape"/>
</filter>
<filter id="filter1_d" x="669" y="58" width="19" height="19" filterUnits="userSpaceOnUse" color-interpolation-filters="sRGB">
<feFlood flood-opacity="0" result="BackgroundImageFix"/>
<feColorMatrix in="SourceAlpha" type="matrix" values="0 0 0 0 0 0 0 0 0 0 0 0 0 0 0 0 0 0 255 0"/>
<feOffset/>
<feGaussianBlur stdDeviation="4"/>
<feColorMatrix type="matrix" values="0 0 0 0 0.894118 0 0 0 0 0.12549 0 0 0 0 0.215686 0 0 0 1 0"/>
<feBlend mode="normal" in2="BackgroundImageFix" result="effect1_dropShadow"/>
<feBlend mode="normal" in="SourceGraphic" in2="effect1_dropShadow" result="shape"/>
</filter>
<filter id="filter2_d" x="679" y="58" width="19" height="19" filterUnits="userSpaceOnUse" color-interpolation-filters="sRGB">
<feFlood flood-opacity="0" result="BackgroundImageFix"/>
<feColorMatrix in="SourceAlpha" type="matrix" values="0 0 0 0 0 0 0 0 0 0 0 0 0 0 0 0 0 0 255 0"/>
<feOffset/>
<feGaussianBlur stdDeviation="4"/>
<feColorMatrix type="matrix" values="0 0 0 0 0.894118 0 0 0 0 0.12549 0 0 0 0 0.215686 0 0 0 1 0"/>
<feBlend mode="normal" in2="BackgroundImageFix" result="effect1_dropShadow"/>
<feBlend mode="normal" in="SourceGraphic" in2="effect1_dropShadow" result="shape"/>
</filter>
<filter id="filter3_d" x="699" y="58" width="19" height="19" filterUnits="userSpaceOnUse" color-interpolation-filters="sRGB">
<feFlood flood-opacity="0" result="BackgroundImageFix"/>
<feColorMatrix in="SourceAlpha" type="matrix" values="0 0 0 0 0 0 0 0 0 0 0 0 0 0 0 0 0 0 255 0"/>
<feOffset/>
<feGaussianBlur stdDeviation="4"/>
<feColorMatrix type="matrix" values="0 0 0 0 0.894118 0 0 0 0 0.12549 0 0 0 0 0.215686 0 0 0 1 0"/>
<feBlend mode="normal" in2="BackgroundImageFix" result="effect1_dropShadow"/>
<feBlend mode="normal" in="SourceGraphic" in2="effect1_dropShadow" result="shape"/>
</filter>
<filter id="filter4_d" x="0.228638" y="0.724609" width="259.704" height="66.5586" filterUnits="userSpaceOnUse" color-interpolation-filters="sRGB">
<feFlood flood-opacity="0" result="BackgroundImageFix"/>
<feColorMatrix in="SourceAlpha" type="matrix" values="0 0 0 0 0 0 0 0 0 0 0 0 0 0 0 0 0 0 255 0"/>
<feOffset dy="4"/>
<feColorMatrix type="matrix" values="0 0 0 0 0.27451 0 0 0 0 0.721569 0 0 0 0 0.686275 0 0 0 1 0"/>
<feBlend mode="normal" in2="BackgroundImageFix" result="effect1_dropShadow"/>
<feBlend mode="normal" in="SourceGraphic" in2="effect1_dropShadow" result="shape"/>
</filter>
</defs>
</svg>
